{
	"info": {
		"_postman_id": "56585ffb-1dc9-400b-ba93-112c64b3d42f",
		"name": "MedServiceAPI",
		"schema": "https://schema.getpostman.com/json/collection/v2.1.0/collection.json",
		"_exporter_id": "22117117"
	},
	"item": [
		{
			"name": "Создание пациента",
			"request": {
				"auth": {
					"type": "noauth"
				},
				"method": "POST",
				"header": [
					{
						"key": "Authorization",
						"value": "Bearer token",
						"type": "text"
					}
				],
				"body": {
					"mode": "raw",
					"raw": "{\r\n  \"name\": \"John Doe\",\r\n  \"gender\": \"MALE\",\r\n  \"birthDate\": \"2000-01-01\"\r\n}",
					"options": {
						"raw": {
							"language": "json"
						}
					}
				},
				"url": {
					"raw": "http://localhost:8080/patients",
					"protocol": "http",
					"host": [
						"localhost"
					],
					"port": "8080",
					"path": [
						"patients"
					]
				}
			},
			"response": []
		},
		{
			"name": "Обновление пациента по id",
			"request": {
				"auth": {
					"type": "noauth"
				},
				"method": "PUT",
				"header": [
					{
						"key": "Authorization",
						"value": "Bearer token",
						"type": "text"
					}
				],
				"body": {
					"mode": "raw",
					"raw": "{\r\n  \"name\": \"John Doe\",\r\n  \"gender\": \"MALE\",\r\n  \"birthDate\": \"2000-01-01\"\r\n}",
					"options": {
						"raw": {
							"language": "json"
						}
					}
				},
				"url": {
					"raw": "http://localhost:8080/patients/{id}",
					"protocol": "http",
					"host": [
						"localhost"
					],
					"port": "8080",
					"path": [
						"patients",
						"{id}"
					]
				}
			},
			"response": []
		},
		{
			"name": "Получение пациента по id",
			"request": {
				"auth": {
					"type": "noauth"
				},
				"method": "GET",
				"header": [
					{
						"key": "Authorization",
						"value": "Bearer token",
						"type": "text"
					}
				],
				"url": {
					"raw": "http://localhost:8080/patients/{id}",
					"protocol": "http",
					"host": [
						"localhost"
					],
					"port": "8080",
					"path": [
						"patients",
						"{id}"
					]
				}
			},
			"response": []
		},
		{
			"name": "Удаление пациента по id",
			"request": {
				"auth": {
					"type": "noauth"
				},
				"method": "DELETE",
				"header": [
					{
						"key": "Authorization",
						"value": "Bearer token",
						"type": "text"
					}
				],
				"url": {
					"raw": "http://localhost:8080/patients/{id}",
					"protocol": "http",
					"host": [
						"localhost"
					],
					"port": "8080",
					"path": [
						"patients",
						"{id}"
					]
				}
			},
			"response": []
		}
	]
}